Biospecimens Date of Acquisition,2
Biospecimens Pathology Status of Acquisition,1
Biospecimens Specimen Type,1
Clinical Registries Cancer Center All,1
Clinical Registries Cancer Center AML,1
Clinical Registries Critical Care Acute Organ Failure,1
Clinical Registries Critical Care Comorbidity,1